{
  "name": "",
  "css_prefix_text": "icon-",
  "css_use_suffix": false,
  "hinting": true,
  "units_per_em": 1000,
  "ascent": 850,
  "glyphs": [
    {
      "uid": "a9862b9d5197886c1ad693ecd7120b31",
      "css": "youtube",
      "code": 61799,
      "src": "fontawesome"
    },
    {
      "uid": "4743b088aa95d6f3b6b990e770d3b647",
      "css": "facebook-squared",
      "code": 62216,
      "src": "fontawesome"
    },
    {
      "uid": "c75b7d61b0bce6aeb54292e3952a1568",
      "css": "git-squared",
      "code": 61906,
      "src": "fontawesome"
    },
    {
      "uid": "1145676a91138011729fa2909997af66",
      "css": "linkedin-squared",
      "code": 62220,
      "src": "fontawesome"
    },
    {
      "uid": "8b80d36d4ef43889db10bc1f0dc9a862",
      "css": "user",
      "code": 59392,
      "src": "fontawesome"
    },
    {
      "uid": "500fc1f109021e4b1de4deda2f7ed399",
      "css": "laptop",
      "code": 61705,
      "src": "fontawesome"
    },
    {
      "uid": "20fc52f9a88bb7bda023ef209acac095",
      "css": "graduation-cap",
      "code": 61853,
      "src": "fontawesome"
    },
    {
      "uid": "bf882b30900da12fca090d9796bc3030",
      "css": "mail",
      "code": 59393,
      "src": "fontawesome"
    },
    {
      "uid": "ccc2329632396dc096bb638d4b46fb98",
      "css": "mail-alt",
      "code": 61664,
      "src": "fontawesome"
    },
    {
      "uid": "0ccb084ddeeae372673793ed0b45bb4a",
      "css": "folder",
      "code": 59394,
      "src": "entypo"
    },
    {
      "uid": "c0a33f22eaeba6c843457bc23a7ab2a8",
      "css": "internet-explorer",
      "code": 62059,
      "src": "fontawesome"
    },
    {
      "uid": "52f734427edaded2af2fc050ac5d3554",
      "css": "opera",
      "code": 62058,
      "src": "fontawesome"
    },
    {
      "uid": "c97bfbcfb31e74be0653d8551c89a40f",
      "css": "firefox",
      "code": 62057,
      "src": "fontawesome"
    },
    {
      "uid": "bd7fd67bed189448225cad0fe4ef3d7c",
      "css": "chrome",
      "code": 62056,
      "src": "fontawesome"
    },
    {
      "uid": "c5af9b4626c0f2fa6dc259f9f035b055",
      "css": "safari",
      "code": 62055,
      "src": "fontawesome"
    },
    {
      "uid": "0b5f5c9abb1b4f21e75ff572955aa1de",
      "css": "wikipedia-w",
      "code": 62054,
      "src": "fontawesome"
    },
    {
      "uid": "26613a2e6bc41593c54bead46f8c8ee3",
      "css": "file-code",
      "code": 61897,
      "src": "fontawesome"
    },
    {
      "uid": "c95735c17a10af81448c7fed98a04546",
      "css": "folder-open",
      "code": 59395,
      "src": "fontawesome"
    },
    {
      "uid": "f8aa663c489bcbd6e68ec8147dca841e",
      "css": "folder-1",
      "code": 59396,
      "src": "fontawesome"
    },
    {
      "uid": "6533bdc16ab201eb3f3b27ce989cab33",
      "css": "folder-open-empty",
      "code": 61717,
      "src": "fontawesome"
    },
    {
      "uid": "b091a8bd0fdade174951f17d936f51e4",
      "css": "folder-empty",
      "code": 61716,
      "src": "fontawesome"
    },
    {
      "uid": "04ff8d6592fe548b332b27ed87ce397a",
      "css": "box",
      "code": 61831,
      "src": "fontawesome"
    },
    {
      "uid": "ead4c82d04d7758db0f076584893a8c1",
      "css": "calendar-empty",
      "code": 61747,
      "src": "fontawesome"
    },
    {
      "uid": "310ffd629da85142bc8669f010556f2d",
      "css": "file-word",
      "code": 61890,
      "src": "fontawesome"
    },
    {
      "uid": "3c961c1a8d874815856fc6637dc5a13c",
      "css": "file-image",
      "code": 61893,
      "src": "fontawesome"
    },
    {
      "uid": "edcd4022de8d8df266ef7c42d2658ca5",
      "css": "file-powerpoint",
      "code": 61892,
      "src": "fontawesome"
    },
    {
      "uid": "531bc468eecbb8867d822f1c11f1e039",
      "css": "calendar",
      "code": 59397,
      "src": "fontawesome"
    },
    {
      "uid": "1b5a5d7b7e3c71437f5a26befdd045ed",
      "css": "doc",
      "code": 59398,
      "src": "fontawesome"
    },
    {
      "uid": "f48ae54adfb27d8ada53d0fd9e34ee10",
      "css": "trash-empty",
      "code": 59399,
      "src": "fontawesome"
    },
    {
      "uid": "bbfb51903f40597f0b70fd75bc7b5cac",
      "css": "trash",
      "code": 61944,
      "src": "fontawesome"
    },
    {
      "uid": "921e3974e54ff9e8b7cd906a3dc74636",
      "css": "direction",
      "code": 61732,
      "src": "fontawesome"
    },
    {
      "uid": "0133387f2069a1b3168942b84d81dd3a",
      "css": "gamepad",
      "code": 61723,
      "src": "fontawesome"
    },
    {
      "uid": "f4445feb55521283572ee88bc304f928",
      "css": "floppy",
      "code": 59400,
      "src": "fontawesome"
    },
    {
      "uid": "5rarhtgcreeh8evuaqd8zoekgehkt3mm",
      "css": "music",
      "code": 59401,
      "src": "typicons"
    },
    {
      "uid": "b1c81b3df9f4a9b8c393f405bb5293d8",
      "css": "music-outline",
      "code": 59402,
      "src": "typicons"
    },
    {
      "uid": "6c304f746d790c6749f345ac384cbd7c",
      "css": "cloudapp",
      "code": 59403,
      "src": "zocial"
    },
    {
      "uid": "d4d52a448819e8d5e849b8126416b640",
      "css": "html5",
      "code": 59404,
      "src": "zocial"
    },
    {
      "uid": "63208f7386b9384ba1291832de6ceee7",
      "css": "ie",
      "code": 59405,
      "src": "zocial"
    },
    {
      "uid": "d0ce443b8d7376716584f5f660a6bf72",
      "css": "dropbox",
      "code": 59406,
      "src": "zocial"
    },
    {
      "uid": "e7ab5637425cce7dd2176302ddaf1c08",
      "css": "music-1",
      "code": 59407,
      "src": "elusive"
    },
    {
      "uid": "3e31c5e1720a1545c5024a1796d74e5b",
      "css": "export",
      "code": 59408,
      "src": "elusive"
    },
    {
      "uid": "7b6c617d6d1e3f22db493839f0483bf6",
      "css": "edit",
      "code": 59409,
      "src": "elusive"
    },
    {
      "uid": "5403802c07a547ae140985f9e2c6bc73",
      "css": "globe",
      "code": 59410,
      "src": "elusive"
    },
    {
      "uid": "221947bea81f49a11b863c686a7bd235",
      "css": "search",
      "code": 59411,
      "src": "websymbols"
    }
  ]
}